<?xml version="1.0" encoding="UTF-8"?>
<svg width="96px" height="96px" viewBox="0 0 96 96" version="1.1" xmlns="http://www.w3.org/2000/svg" xmlns:xlink="http://www.w3.org/1999/xlink">
    <!-- Generator: Sketch 55.1 (78136) - https://sketchapp.com -->
    <title>icon-充值/余额</title>
    <desc>Created with Sketch.</desc>
    <defs>
        <linearGradient x1="0%" y1="0%" x2="100%" y2="100%" id="linearGradient-1">
            <stop stop-color="#8EF489" offset="0%"></stop>
            <stop stop-color="#29B455" offset="100%"></stop>
        </linearGradient>
    </defs>
    <g id="页面1" stroke="none" stroke-width="1" fill="none" fill-rule="evenodd">
        <g id="首页备份-2" transform="translate(-411.000000, -469.000000)">
            <g id="icon-充值/余额" transform="translate(411.000000, 469.000000)">
                <path d="M48,96 C80.1329309,96 96,80.1329309 96,48 C96,15.8670691 80.1329309,-2.50111043e-12 48,-2.50111043e-12 C15.8670691,-2.50111043e-12 0,15.8670691 0,48 C0,80.1329309 15.8670691,96 48,96 Z" id="Oval-Copy-13" fill="url(#linearGradient-1)"></path>
                <path d="M44,35 L44,41 L34,41 C30.1340068,41 27,44.1340068 27,48 C27,51.8659932 30.1340068,55 34,55 L44,55 L44,61 L34,61 C26.8202983,61 21,55.1797017 21,48 C21,40.8202983 26.8202983,35 34,35 L44,35 Z M52,61 L52,55 L61,55 C64.8659932,55 68,51.8659932 68,48 C68,44.1340068 64.8659932,41 61,41 L52,41 L52,35 L62,35 C69.1797017,35 75,40.8202983 75,48 C75,55.1797017 69.1797017,61 62,61 L52,61 Z" id="Combined-Shape" fill="#FFFFFF" transform="translate(48.000000, 48.000000) rotate(-45.000000) translate(-48.000000, -48.000000) "></path>
                <rect id="矩形备份-8" fill="#A5FCC0" transform="translate(48.000000, 48.000000) rotate(-45.000000) translate(-48.000000, -48.000000) " x="40" y="45" width="16" height="6" rx="3"></rect>
            </g>
        </g>
    </g>
</svg>