<?xml version="1.0" encoding="UTF-8"?>
<svg width="38px" height="38px" viewBox="0 0 38 38" version="1.1" xmlns="http://www.w3.org/2000/svg" xmlns:xlink="http://www.w3.org/1999/xlink">
    <!-- Generator: Sketch 55.1 (78136) - https://sketchapp.com -->
    <title>icon-我的</title>
    <desc>Created with Sketch.</desc>
    <g id="页面1" stroke="none" stroke-width="1" fill="none" fill-rule="evenodd">
        <g id="服务大厅" transform="translate(-637.000000, -1254.000000)">
            <g id="icon-我的" transform="translate(634.000000, 1251.000000)">
                <rect id="矩形备份-9" fill="#E85757" opacity="0" x="0" y="0" width="44" height="44"></rect>
                <circle id="Oval" fill="#3C3F3C" fill-rule="nonzero" cx="22" cy="22" r="19"></circle>
                <path d="M11,22 L33,22 C33,28.0751322 28.0751322,33 22,33 C15.9248678,33 11,28.0751322 11,22 Z" id="Combined-Shape" fill="#FFFFFF" fill-rule="nonzero"></path>
            </g>
        </g>
    </g>
</svg>